p01_ALU/alu.vcd
$date
	Mon Oct 23 12:02:14 2023
$end
$version
	Icarus Verilog
$end
$timescale
	10ps
$end
$scope module alu_tb $end
$var wire 1 ! t_z $end
$var wire 1 " t_s $end
$var wire 1 # t_c $end
$var wire 4 $ t_R [3:0] $end
$var reg 1 % error $end
$var reg 1 & error_R $end
$var reg 1 ' error_c $end
$var reg 1 ( error_s $end
$var reg 1 ) error_z $end
$var reg 4 * t_A [3:0] $end
$var reg 4 + t_B [3:0] $end
$var reg 2 , t_Op [1:0] $end
$var reg 1 - t_cin $end
$var reg 1 . t_l $end
$var integer 32 / errores [31:0] $end
$scope module mat $end
$var wire 4 0 A [3:0] $end
$var wire 2 1 ALUOP [1:0] $end
$var wire 4 2 B [3:0] $end
$var wire 1 - c_in $end
$var wire 1 # c_out $end
$var wire 1 3 ci_in $end
$var wire 1 . l $end
$var wire 1 ! zero $end
$var wire 4 4 sum_result [3:0] $end
$var wire 1 5 sum_carry_out $end
$var wire 1 " sign $end
$var wire 4 6 R [3:0] $end
$var reg 1 7 operacion $end
$scope module sum_unit $end
$var wire 4 8 A [3:0] $end
$var wire 4 9 B [3:0] $end
$var wire 1 3 c_in $end
$var wire 1 5 c_out $end
$var wire 1 : c3 $end
$var wire 1 ; c2 $end
$var wire 1 < c1 $end
$var wire 4 = S [3:0] $end
$scope module fa0 $end
$var wire 1 > a $end
$var wire 1 ? b $end
$var wire 1 3 c_in $end
$var wire 1 < c_out $end
$var wire 1 @ sum1 $end
$var wire 1 A sum $end
$var wire 1 B carry2 $end
$var wire 1 C carry1 $end
$scope module ha1 $end
$var wire 1 > a $end
$var wire 1 ? b $end
$var wire 1 C carry $end
$var wire 1 @ sum $end
$upscope $end
$scope module ha2 $end
$var wire 1 3 a $end
$var wire 1 @ b $end
$var wire 1 B carry $end
$var wire 1 A sum $end
$upscope $end
$upscope $end
$scope module fa1 $end
$var wire 1 D a $end
$var wire 1 E b $end
$var wire 1 < c_in $end
$var wire 1 ; c_out $end
$var wire 1 F sum1 $end
$var wire 1 G sum $end
$var wire 1 H carry2 $end
$var wire 1 I carry1 $end
$scope module ha1 $end
$var wire 1 D a $end
$var wire 1 E b $end
$var wire 1 I carry $end
$var wire 1 F sum $end
$upscope $end
$scope module ha2 $end
$var wire 1 < a $end
$var wire 1 F b $end
$var wire 1 H carry $end
$var wire 1 G sum $end
$upscope $end
$upscope $end
$scope module fa2 $end
$var wire 1 J a $end
$var wire 1 K b $end
$var wire 1 ; c_in $end
$var wire 1 : c_out $end
$var wire 1 L sum1 $end
$var wire 1 M sum $end
$var wire 1 N carry2 $end
$var wire 1 O carry1 $end
$scope module ha1 $end
$var wire 1 J a $end
$var wire 1 K b $end
$var wire 1 O carry $end
$var wire 1 L sum $end
$upscope $end
$scope module ha2 $end
$var wire 1 ; a $end
$var wire 1 L b $end
$var wire 1 N carry $end
$var wire 1 M sum $end
$upscope $end
$upscope $end
$scope module fa3 $end
$var wire 1 P a $end
$var wire 1 Q b $end
$var wire 1 : c_in $end
$var wire 1 5 c_out $end
$var wire 1 R sum1 $end
$var wire 1 S sum $end
$var wire 1 T carry2 $end
$var wire 1 U carry1 $end
$scope module ha1 $end
$var wire 1 P a $end
$var wire 1 Q b $end
$var wire 1 U carry $end
$var wire 1 R sum $end
$upscope $end
$scope module ha2 $end
$var wire 1 : a $end
$var wire 1 R b $end
$var wire 1 T carry $end
$var wire 1 S sum $end
$upscope $end
$upscope $end
$upscope $end
$upscope $end
$scope task check $end
$var reg 5 V expected_R [4:0] $end
$var reg 1 W expected_c $end
$var reg 1 X expected_s $end
$var reg 1 Y expected_z $end
$upscope $end
$upscope $end
$enddefinitions $end
#0
$dumpvars
xY
xX
xW
bx V
xU
xT
xS
xR
0Q
0P
xO
xN
xM
xL
0K
0J
xI
xH
xG
xF
0E
0D
xC
xB
xA
x@
0?
0>
bx =
x<
x;
x:
b0 9
b0 8
x7
b0x 6
x5
bx 4
z3
b0 2
b0 1
b0 0
b0 /
0.
0-
b0 ,
b0 +
b0 *
x)
x(
x'
x&
x%
b0x $
x#
0"
x!
$end
#1
b1 /
1%
1)
1&
1Y
1'
0(
0X
0W
b0 V
#100
0@
0C
0F
0I
0L
0O
0R
0U
#200
0<
0;
0:
0#
05
0B
0H
0N
0T
#300
0G
0M
b0x 4
b0x =
0S
#1000
1?
b1 +
b1 2
b1 9
#1001
b10 /
0'
#1100
1@
#1200
x<
xB
#1300
b0xx 4
b0xx =
xG
#2000
0?
1E
b10 +
b10 2
b10 9
#2001
b11 /
#2100
0@
1F
#2200
0<
x;
0B
xH
#2300
0;
1G
0H
b0x1x 4
b0x1x =
xM
#2400
b1x 4
b1x =
0M
#3000
1?
b11 +
b11 2
b11 9
#3001
b100 /
#3100
1@
#3200
x<
xB
#3300
x;
b0xx 4
b0xx =
xG
xH
#3400
b0xxx 4
b0xxx =
xM
#4000
0?
0E
1K
b100 +
b100 2
b100 9
#4001
b101 /
#4100
0@
0F
1L
#4200
0<
0;
x:
0B
0H
xN
#4300
0:
0G
1M
0N
bx10x 4
bx10x =
xS
#4400
b10x 4
b10x =
0S
#5000
1?
b101 +
b101 2
b101 9
#5001
b110 /
#5100
1@
#5200
x<
xB
#5300
b1xx 4
b1xx =
xG
#6000
0?
1E
b110 +
b110 2
b110 9
#6001
b111 /
#6100
0@
1F
#6200
0<
x;
0B
xH
#6300
0;
x:
1G
0H
b0x1x 4
b0x1x =
xM
xN
#6400
0:
1M
0N
bx11x 4
bx11x =
xS
#6500
b11x 4
b11x =
0S
#7000
1?
b111 +
b111 2
b111 9
#7001
b1000 /
#7100
1@
#7200
x<
xB
#7300
x;
b1xx 4
b1xx =
xG
xH
#7400
x:
b0xxx 4
b0xxx =
xM
xN
#7500
bx 4
bx =
xS
#8000
0?
0E
0K
1Q
b1000 +
b1000 2
b1000 9
#8001
b1001 /
#8100
0@
0F
0L
1R
#8200
0<
0;
0:
x#
x5
0B
0H
0N
xT
#8300
0#
05
0G
0M
b100x 4
b100x =
1S
0T
#9000
1?
b1001 +
b1001 2
b1001 9
#9001
b1010 /
#9100
1@
#9200
x<
xB
#9300
b10xx 4
b10xx =
xG
#10000
0?
1E
b1010 +
b1010 2
b1010 9
#10001
b1011 /
#10100
0@
1F
#10200
0<
x;
0B
xH
#10300
0;
1G
0H
b1x1x 4
b1x1x =
xM
#10400
b101x 4
b101x =
0M
#11000
1?
b1011 +
b1011 2
b1011 9
#11001
b1100 /
#11100
1@
#11200
x<
xB
#11300
x;
b10xx 4
b10xx =
xG
xH
#11400
b1xxx 4
b1xxx =
xM
#12000
0?
0E
1K
b1100 +
b1100 2
b1100 9
#12001
b1101 /
#12100
0@
0F
1L
#12200
0<
0;
x:
0B
0H
xN
#12300
0:
x#
x5
0G
1M
0N
bx10x 4
bx10x =
xS
xT
#12400
0#
05
b110x 4
b110x =
1S
0T
#13000
1?
b1101 +
b1101 2
b1101 9
#13001
b1110 /
#13100
1@
#13200
x<
xB
#13300
b11xx 4
b11xx =
xG
#14000
0?
1E
b1110 +
b1110 2
b1110 9
#14001
b1111 /
#14100
0@
1F
#14200
0<
x;
0B
xH
#14300
0;
x:
1G
0H
b1x1x 4
b1x1x =
xM
xN
#14400
0:
x#
x5
1M
0N
bx11x 4
bx11x =
xS
xT
#14500
0#
05
b111x 4
b111x =
1S
0T
#15000
1?
b1111 +
b1111 2
b1111 9
#15001
b10000 /
#15100
1@
#15200
x<
xB
#15300
x;
b11xx 4
b11xx =
xG
xH
#15400
x:
b1xxx 4
b1xxx =
xM
xN
#15500
x#
x5
bx 4
bx =
xS
xT
#16000
1>
0?
0E
0K
0Q
b1 *
b1 0
b1 8
b0 +
b0 2
b0 9
#16001
b10001 /
0Y
1'
b1 V
#16100
0F
0L
0R
#16200
0;
0:
0#
05
0H
0N
0T
#16300
0M
b0xx 4
b0xx =
0S
#17000
1?
b1 +
b1 2
b1 9
#17001
b10010 /
0'
#17100
1<
0@
1C
#17200
b1x 4
b1x =
1G
0B
#18000
0?
1E
b10 +
b10 2
b10 9
#18001
b10011 /
#18100
0<
1@
0C
1F
#18200
x<
xB
#18300
x;
b0xx 4
b0xx =
xG
xH
#18400
b0xxx 4
b0xxx =
xM
#19000
1?
b11 +
b11 2
b11 9
#19001
b10100 /
#19100
1<
0@
1C
#19200
1;
b0x0x 4
b0x0x =
0G
1H
0B
#19300
b10x 4
b10x =
1M
#20000
0?
0E
1K
b100 +
b100 2
b100 9
#20001
b10101 /
#20100
0<
1@
0C
0F
1L
#20200
x<
0;
1:
xB
0H
b0x 4
b0x =
0M
1N
#20300
0:
xG
1M
0N
b11xx 4
b11xx =
1S
#20400
b1xx 4
b1xx =
0S
#21000
1?
b101 +
b101 2
b101 9
#21001
b10110 /
#21100
1<
0@
1C
#21200
b11x 4
b11x =
1G
0B
#22000
0?
1E
b110 +
b110 2
b110 9
#22001
b10111 /
#22100
0<
1@
0C
1F
#22200
x<
xB
#22300
x;
b1xx 4
b1xx =
xG
xH
#22400
x:
b0xxx 4
b0xxx =
xM
xN
#22500
bx 4
bx =
xS
#23000
1?
b111 +
b111 2
b111 9
#23001
b11000 /
#23100
1<
0@
1C
#23200
1;
bx0x 4
bx0x =
0G
1H
0B
#23300
1:
bx00x 4
bx00x =
0M
1N
#23400
b100x 4
b100x =
1S
#24000
0?
0E
0K
1Q
b1000 +
b1000 2
b1000 9
#24001
b11001 /
#24100
0<
1@
0C
0F
0L
1R
#24200
x<
0;
0:
1#
15
xB
0H
1M
0N
b10x 4
b10x =
0S
1T
#24300
0#
05
xG
0M
b10xx 4
b10xx =
1S
0T
#25000
1?
b1001 +
b1001 2
b1001 9
#25001
b11010 /
#25100
1<
0@
1C
#25200
b101x 4
b101x =
1G
0B
#26000
0?
1E
b1010 +
b1010 2
b1010 9
#26001
b11011 /
#26100
0<
1@
0C
1F
#26200
x<
xB
#26300
x;
b10xx 4
b10xx =
xG
xH
#26400
b1xxx 4
b1xxx =
xM
#27000
1?
b1011 +
b1011 2
b1011 9
#27001
b11100 /
#27100
1<
0@
1C
#27200
1;
b1x0x 4
b1x0x =
0G
1H
0B
#27300
b110x 4
b110x =
1M
#28000
0?
0E
1K
b1100 +
b1100 2
b1100 9
#28001
b11101 /
#28100
0<
1@
0C
0F
1L
#28200
x<
0;
1:
xB
0H
b100x 4
b100x =
0M
1N
#28300
0:
1#
15
xG
1M
0N
b1xx 4
b1xx =
0S
1T
#28400
0#
05
b11xx 4
b11xx =
1S
0T
#29000
1?
b1101 +
b1101 2
b1101 9
#29001
b11110 /
#29100
1<
0@
1C
#29200
b111x 4
b111x =
1G
0B
#30000
0?
1E
b1110 +
b1110 2
b1110 9
#30001
b11111 /
#30100
0<
1@
0C
1F
#30200
x<
xB
#30300
x;
b11xx 4
b11xx =
xG
xH
#30400
x:
b1xxx 4
b1xxx =
xM
xN
#30500
x#
x5
bx 4
bx =
xS
xT
#31000
1?
b1111 +
b1111 2
b1111 9
#31001
b100000 /
1'
#31100
1<
0@
1C
#31200
1;
bx0x 4
bx0x =
0G
1H
0B
#31300
1:
bx00x 4
bx00x =
0M
1N
#31400
1#
15
b0x 4
b0x =
0S
1T
#32000
0>
1D
0?
0E
0K
0Q
b10 *
b10 0
b10 8
b0 +
b0 2
b0 9
#32001
b100001 /
b10 V
#32100
0<
0C
0L
0R
#32200
0;
0:
0#
05
1G
0H
1M
0N
b111x 4
b111x =
1S
0T
#32300
0M
b1x 4
b1x =
0S
#33000
1?
b1 +
b1 2
b1 9
#33001
b100010 /
0'
#33100
1@
#33200
x<
xB
#33300
x;
b0xx 4
b0xx =
xG
xH
#33400
b0xxx 4
b0xxx =
xM
#34000
0?
1E
b10 +
b10 2
b10 9
#34001
b100011 /
#34100
1;
0@
0F
1I
#34200
0<
b1xx 4
b1xx =
1M
0B
0H
#34300
b10x 4
b10x =
0G
#35000
1?
b11 +
b11 2
b11 9
#35001
b100100 /
#35100
1@
#35200
x<
xB
#35300
b1xx 4
b1xx =
xG
#36000
0?
0E
1K
b100 +
b100 2
b100 9
#36001
b100101 /
#36100
0;
0@
1F
0I
1L
#36200
0<
x;
0B
xH
#36300
0;
x:
1G
0H
b0x1x 4
b0x1x =
xM
xN
#36400
0:
1M
0N
bx11x 4
bx11x =
xS
#36500
b11x 4
b11x =
0S
#37000
1?
b101 +
b101 2
b101 9
#37001
b100110 /
#37100
1@
#37200
x<
xB
#37300
x;
b1xx 4
b1xx =
xG
xH
#37400
x:
b0xxx 4
b0xxx =
xM
xN
#37500
bx 4
bx =
xS
#38000
0?
1E
b110 +
b110 2
b110 9
#38001
b100111 /
#38100
1;
0@
0F
1I
#38200
1:
0<
bx0xx 4
bx0xx =
0M
1N
0B
0H
#38300
1S
b100x 4
b100x =
0G
#39000
1?
b111 +
b111 2
b111 9
#39001
b101000 /
#39100
1@
#39200
x<
xB
#39300
b10xx 4
b10xx =
xG
#40000
0?
0E
0K
1Q
b1000 +
b1000 2
b1000 9
#40001
b101001 /
#40100
0;
0@
1F
0I
0L
1R
#40200
0<
x;
0:
1#
15
0B
xH
0N
b0xx 4
b0xx =
0S
1T
#40300
0;
0#
05
1G
0H
xM
b1x1x 4
b1x1x =
1S
0T
#40400
b101x 4
b101x =
0M
#41000
1?
b1001 +
b1001 2
b1001 9
#41001
b101010 /
#41100
1@
#41200
x<
xB
#41300
x;
b10xx 4
b10xx =
xG
xH
#41400
b1xxx 4
b1xxx =
xM
#42000
0?
1E
b1010 +
b1010 2
b1010 9
#42001
b101011 /
#42100
1;
0@
0F
1I
#42200
0<
b11xx 4
b11xx =
1M
0B
0H
#42300
b110x 4
b110x =
0G
#43000
1?
b1011 +
b1011 2
b1011 9
#43001
b101100 /
#43100
1@
#43200
x<
xB
#43300
b11xx 4
b11xx =
xG
#44000
0?
0E
1K
b1100 +
b1100 2
b1100 9
#44001
b101101 /
#44100
0;
0@
1F
0I
1L
#44200
0<
x;
0B
xH
#44300
0;
x:
1G
0H
b1x1x 4
b1x1x =
xM
xN
#44400
0:
x#
x5
1M
0N
bx11x 4
bx11x =
xS
xT
#44500
0#
05
b111x 4
b111x =
1S
0T
#45000
1?
b1101 +
b1101 2
b1101 9
#45001
b101110 /
#45100
1@
#45200
x<
xB
#45300
x;
b11xx 4
b11xx =
xG
xH
#45400
x:
b1xxx 4
b1xxx =
xM
xN
#45500
x#
x5
bx 4
bx =
xS
xT
#46000
0?
1E
b1110 +
b1110 2
b1110 9
#46001
b101111 /
1'
#46100
1;
0@
0F
1I
#46200
1:
0<
bx0xx 4
bx0xx =
0M
1N
0B
0H
#46300
1#
15
0S
1T
b0x 4
b0x =
0G
#47000
1?
b1111 +
b1111 2
b1111 9
#47001
b110000 /
#47100
1@
#47200
x<
xB
#47300
b0xx 4
b0xx =
xG
#48000
1>
0?
0E
0K
0Q
b11 *
b11 0
b11 8
b0 +
b0 2
b0 9
#48001
b110001 /
b11 V
#48100
0;
1F
0I
0L
0R
#48200
x;
0:
0#
05
xH
0N
b10xx 4
b10xx =
1S
0T
#48300
xM
b0xxx 4
b0xxx =
0S
#49000
1?
b1 +
b1 2
b1 9
#49001
b110010 /
0'
#49100
1<
0@
1C
#49200
1;
b0x0x 4
b0x0x =
0G
1H
0B
#49300
b10x 4
b10x =
1M
#50000
0?
1E
b10 +
b10 2
b10 9
#50001
b110011 /
#50100
0<
1@
0C
0F
1I
#50200
x<
xB
0H
#50300
b1xx 4
b1xx =
xG
#51000
1?
b11 +
b11 2
b11 9
#51001
b110100 /
#51100
1<
0@
1C
#51200
b11x 4
b11x =
1G
0B
#52000
0?
0E
1K
b100 +
b100 2
b100 9
#52001
b110101 /
#52100
0<
0;
1@
0C
1F
0I
1L
#52200
x<
xB
#52300
x;
b1xx 4
b1xx =
xG
xH
#52400
x:
b0xxx 4
b0xxx =
xM
xN
#52500
bx 4
bx =
xS
#53000
1?
b101 +
b101 2
b101 9
#53001
b110110 /
#53100
1<
0@
1C
#53200
1;
bx0x 4
bx0x =
0G
1H
0B
#53300
1:
bx00x 4
bx00x =
0M
1N
#53400
b100x 4
b100x =
1S
#54000
0?
1E
b110 +
b110 2
b110 9
#54001
b110111 /
#54100
0<
1@
0C
0F
1I
#54200
x<
xB
0H
#54300
b10xx 4
b10xx =
xG
#55000
1?
b111 +
b111 2
b111 9
#55001
b111000 /
#55100
1<
0@
1C
#55200
b101x 4
b101x =
1G
0B
#56000
0?
0E
0K
1Q
b1000 +
b1000 2
b1000 9
#56001
b111001 /
#56100
0<
0;
1@
0C
1F
0I
0L
1R
#56200
x<
0:
1#
15
xB
0N
b1x 4
b1x =
0S
1T
#56300
x;
0#
05
xG
xH
b10xx 4
b10xx =
1S
0T
#56400
b1xxx 4
b1xxx =
xM
#57000
1?
b1001 +
b1001 2
b1001 9
#57001
b111010 /
#57100
1<
0@
1C
#57200
1;
b1x0x 4
b1x0x =
0G
1H
0B
#57300
b110x 4
b110x =
1M
#58000
0?
1E
b1010 +
b1010 2
b1010 9
#58001
b111011 /
#58100
0<
1@
0C
0F
1I
#58200
x<
xB
0H
#58300
b11xx 4
b11xx =
xG
#59000
1?
b1011 +
b1011 2
b1011 9
#59001
b111100 /
#59100
1<
0@
1C
#59200
b111x 4
b111x =
1G
0B
#60000
0?
0E
1K
b1100 +
b1100 2
b1100 9
#60001
b111101 /
#60100
0<
0;
1@
0C
1F
0I
1L
#60200
x<
xB
#60300
x;
b11xx 4
b11xx =
xG
xH
#60400
x:
b1xxx 4
b1xxx =
xM
xN
#60500
x#
x5
bx 4
bx =
xS
xT
#61000
1?
b1101 +
b1101 2
b1101 9
#61001
b111110 /
1'
#61100
1<
0@
1C
#61200
1;
bx0x 4
bx0x =
0G
1H
0B
#61300
1:
bx00x 4
bx00x =
0M
1N
#61400
1#
15
b0x 4
b0x =
0S
1T
#62000
0?
1E
b1110 +
b1110 2
b1110 9
#62001
b111111 /
#62100
0<
1@
0C
0F
1I
#62200
x<
xB
0H
#62300
b0xx 4
b0xx =
xG
#63000
1?
b1111 +
b1111 2
b1111 9
#63001
b1000000 /
#63100
1<
0@
1C
#63200
b1x 4
b1x =
1G
0B
#64000
0>
0D
1J
0?
0E
0K
0Q
b100 *
b100 0
b100 8
b0 +
b0 2
b0 9
#64001
b1000001 /
b100 V
#64100
0<
0;
0C
0I
0R
#64200
0:
0#
05
0G
1M
0N
b110x 4
b110x =
1S
0T
#64300
b10x 4
b10x =
0S
#65000
1?
b1 +
b1 2
b1 9
#65001
b1000010 /
0'
#65100
1@
#65200
x<
xB
#65300
b1xx 4
b1xx =
xG
#66000
0?
1E
b10 +
b10 2
b10 9
#66001
b1000011 /
#66100
0@
1F
#66200
0<
x;
0B
xH
#66300
0;
x:
1G
0H
b0x1x 4
b0x1x =
xM
xN
#66400
0:
1M
0N
bx11x 4
bx11x =
xS
#66500
b11x 4
b11x =
0S
#67000
1?
b11 +
b11 2
b11 9
#67001
b1000100 /
#67100
1@
#67200
x<
xB
#67300
x;
b1xx 4
b1xx =
xG
xH
#67400
x:
b0xxx 4
b0xxx =
xM
xN
#67500
bx 4
bx =
xS
#68000
0?
0E
1K
b100 +
b100 2
b100 9
#68001
b1000101 /
#68100
1:
0@
0F
0L
1O
#68200
0<
0;
b1xxx 4
b1xxx =
1S
0B
0H
0N
#68300
0G
b100x 4
b100x =
0M
#69000
1?
b101 +
b101 2
b101 9
#69001
b1000110 /
#69100
1@
#69200
x<
xB
#69300
b10xx 4
b10xx =
xG
#70000
0?
1E
b110 +
b110 2
b110 9
#70001
b1000111 /
#70100
0@
1F
#70200
0<
x;
0B
xH
#70300
0;
1G
0H
b1x1x 4
b1x1x =
xM
#70400
b101x 4
b101x =
0M
#71000
1?
b111 +
b111 2
b111 9
#71001
b1001000 /
#71100
1@
#71200
x<
xB
#71300
x;
b10xx 4
b10xx =
xG
xH
#71400
b1xxx 4
b1xxx =
xM
#72000
0?
0E
0K
1Q
b1000 +
b1000 2
b1000 9
#72001
b1001001 /
#72100
0:
0@
0F
1L
0O
1R
#72200
0<
0;
x:
0B
0H
xN
#72300
0:
x#
x5
0G
1M
0N
bx10x 4
bx10x =
xS
xT
#72400
0#
05
b110x 4
b110x =
1S
0T
#73000
1?
b1001 +
b1001 2
b1001 9
#73001
b1001010 /
#73100
1@
#73200
x<
xB
#73300
b11xx 4
b11xx =
xG
#74000
0?
1E
b1010 +
b1010 2
b1010 9
#74001
b1001011 /
#74100
0@
1F
#74200
0<
x;
0B
xH
#74300
0;
x:
1G
0H
b1x1x 4
b1x1x =
xM
xN
#74400
0:
x#
x5
1M
0N
bx11x 4
bx11x =
xS
xT
#74500
0#
05
b111x 4
b111x =
1S
0T
#75000
1?
b1011 +
b1011 2
b1011 9
#75001
b1001100 /
#75100
1@
#75200
x<
xB
#75300
x;
b11xx 4
b11xx =
xG
xH
#75400
x:
b1xxx 4
b1xxx =
xM
xN
#75500
x#
x5
bx 4
bx =
xS
xT
#76000
0?
0E
1K
b1100 +
b1100 2
b1100 9
#76001
b1001101 /
1'
#76100
1:
0@
0F
0L
1O
#76200
1#
15
0<
0;
b0xxx 4
b0xxx =
0S
1T
0B
0H
0N
#76300
0G
b0x 4
b0x =
0M
#77000
1?
b1101 +
b1101 2
b1101 9
#77001
b1001110 /
#77100
1@
#77200
x<
xB
#77300
b0xx 4
b0xx =
xG
#78000
0?
1E
b1110 +
b1110 2
b1110 9
#78001
b1001111 /
#78100
0@
1F
#78200
0<
x;
0B
xH
#78300
0;
1G
0H
b0x1x 4
b0x1x =
xM
#78400
b1x 4
b1x =
0M
#79000
1?
b1111 +
b1111 2
b1111 9
#79001
b1010000 /
#79100
1@
#79200
x<
xB
#79300
x;
b0xx 4
b0xx =
xG
xH
#79400
b0xxx 4
b0xxx =
xM
#80000
1>
0?
0E
0K
0Q
b101 *
b101 0
b101 8
b0 +
b0 2
b0 9
#80001
b1010001 /
b101 V
#80100
0:
0F
1L
0O
0R
#80200
0;
x:
0#
05
0H
xN
0T
#80300
0:
1M
0N
bx1xx 4
bx1xx =
xS
#80400
b1xx 4
b1xx =
0S
#81000
1?
b1 +
b1 2
b1 9
#81001
b1010010 /
0'
#81100
1<
0@
1C
#81200
b11x 4
b11x =
1G
0B
#82000
0?
1E
b10 +
b10 2
b10 9
#82001
b1010011 /
#82100
0<
1@
0C
1F
#82200
x<
xB
#82300
x;
b1xx 4
b1xx =
xG
xH
#82400
x:
b0xxx 4
b0xxx =
xM
xN
#82500
bx 4
bx =
xS
#83000
1?
b11 +
b11 2
b11 9
#83001
b1010100 /
#83100
1<
0@
1C
#83200
1;
bx0x 4
bx0x =
0G
1H
0B
#83300
1:
bx00x 4
bx00x =
0M
1N
#83400
b100x 4
b100x =
1S
#84000
0?
0E
1K
b100 +
b100 2
b100 9
#84001
b1010101 /
#84100
0<
1@
0C
0F
0L
1O
#84200
x<
0;
xB
0H
b110x 4
b110x =
1M
0N
#84300
xG
b10xx 4
b10xx =
0M
#85000
1?
b101 +
b101 2
b101 9
#85001
b1010110 /
#85100
1<
0@
1C
#85200
b101x 4
b101x =
1G
0B
#86000
0?
1E
b110 +
b110 2
b110 9
#86001
b1010111 /
#86100
0<
1@
0C
1F
#86200
x<
xB
#86300
x;
b10xx 4
b10xx =
xG
xH
#86400
b1xxx 4
b1xxx =
xM
#87000
1?
b111 +
b111 2
b111 9
#87001
b1011000 /
#87100
1<
0@
1C
#87200
1;
b1x0x 4
b1x0x =
0G
1H
0B
#87300
b110x 4
b110x =
1M
#88000
0?
0E
0K
1Q
b1000 +
b1000 2
b1000 9
#88001
b1011001 /
#88100
0<
0:
1@
0C
0F
1L
0O
1R
#88200
x<
0;
1:
xB
0H
b100x 4
b100x =
0M
1N
#88300
0:
1#
15
xG
1M
0N
b1xx 4
b1xx =
0S
1T
#88400
0#
05
b11xx 4
b11xx =
1S
0T
#89000
1?
b1001 +
b1001 2
b1001 9
#89001
b1011010 /
#89100
1<
0@
1C
#89200
b111x 4
b111x =
1G
0B
#90000
0?
1E
b1010 +
b1010 2
b1010 9
#90001
b1011011 /
#90100
0<
1@
0C
1F
#90200
x<
xB
#90300
x;
b11xx 4
b11xx =
xG
xH
#90400
x:
b1xxx 4
b1xxx =
xM
xN
#90500
x#
x5
bx 4
bx =
xS
xT
#91000
1?
b1011 +
b1011 2
b1011 9
#91001
b1011100 /
1'
#91100
1<
0@
1C
#91200
1;
bx0x 4
bx0x =
0G
1H
0B
#91300
1:
bx00x 4
bx00x =
0M
1N
#91400
1#
15
b0x 4
b0x =
0S
1T
#92000
0?
0E
1K
b1100 +
b1100 2
b1100 9
#92001
b1011101 /
#92100
0<
1@
0C
0F
0L
1O
#92200
x<
0;
xB
0H
b10x 4
b10x =
1M
0N
#92300
xG
b0xx 4
b0xx =
0M
#93000
1?
b1101 +
b1101 2
b1101 9
#93001
b1011110 /
#93100
1<
0@
1C
#93200
b1x 4
b1x =
1G
0B
#94000
0?
1E
b1110 +
b1110 2
b1110 9
#94001
b1011111 /
#94100
0<
1@
0C
1F
#94200
x<
xB
#94300
x;
b0xx 4
b0xx =
xG
xH
#94400
b0xxx 4
b0xxx =
xM
#95000
1?
b1111 +
b1111 2
b1111 9
#95001
b1100000 /
#95100
1<
0@
1C
#95200
1;
b0x0x 4
b0x0x =
0G
1H
0B
#95300
b10x 4
b10x =
1M
#96000
0>
1D
0?
0E
0K
0Q
b110 *
b110 0
b110 8
b0 +
b0 2
b0 9
#96001
b1100001 /
b110 V
#96100
0<
0:
0C
1L
0O
0R
#96200
0;
1:
0#
05
1G
0H
b1x 4
b1x =
0M
1N
0T
#96300
0:
1M
0N
b111x 4
b111x =
1S
#96400
b11x 4
b11x =
0S
#97000
1?
b1 +
b1 2
b1 9
#97001
b1100010 /
0'
#97100
1@
#97200
x<
xB
#97300
x;
b1xx 4
b1xx =
xG
xH
#97400
x:
b0xxx 4
b0xxx =
xM
xN
#97500
bx 4
bx =
xS
#98000
0?
1E
b10 +
b10 2
b10 9
#98001
b1100011 /
#98100
1;
0@
0F
1I
#98200
1:
0<
bx0xx 4
bx0xx =
0M
1N
0B
0H
#98300
1S
b100x 4
b100x =
0G
#99000
1?
b11 +
b11 2
b11 9
#99001
b1100100 /
#99100
1@
#99200
x<
xB
#99300
b10xx 4
b10xx =
xG
#100000
0?
0E
1K
b100 +
b100 2
b100 9
#100001
b1100101 /
#100100
0;
0@
1F
0I
0L
1O
#100200
0<
x;
0B
xH
0N
#100300
0;
1G
0H
b1x1x 4
b1x1x =
xM
#100400
b101x 4
b101x =
0M
#101000
1?
b101 +
b101 2
b101 9
#101001
b1100110 /
#101100
1@
#101200
x<
xB
#101300
x;
b10xx 4
b10xx =
xG
xH
#101400
b1xxx 4
b1xxx =
xM
#102000
0?
1E
b110 +
b110 2
b110 9
#102001
b1100111 /
#102100
1;
0@
0F
1I
#102200
0<
b11xx 4
b11xx =
1M
0B
0H
#102300
b110x 4
b110x =
0G
#103000
1?
b111 +
b111 2
b111 9
#103001
b1101000 /
#103100
1@
#103200
x<
xB
#103300
b11xx 4
b11xx =
xG
#104000
0?
0E
0K
1Q
b1000 +
b1000 2
b1000 9
#104001
b1101001 /
#104100
0;
0:
0@
1F
0I
1L
0O
1R
#104200
0<
x;
0B
xH
#104300
0;
x:
1G
0H
b1x1x 4
b1x1x =
xM
xN
#104400
0:
x#
x5
1M
0N
bx11x 4
bx11x =
xS
xT
#104500
0#
05
b111x 4
b111x =
1S
0T
#105000
1?
b1001 +
b1001 2
b1001 9
#105001
b1101010 /
#105100
1@
#105200
x<
xB
#105300
x;
b11xx 4
b11xx =
xG
xH
#105400
x:
b1xxx 4
b1xxx =
xM
xN
#105500
x#
x5
bx 4
bx =
xS
xT
#106000
0?
1E
b1010 +
b1010 2
b1010 9
#106001
b1101011 /
1'
#106100
1;
0@
0F
1I
#106200
1:
0<
bx0xx 4
bx0xx =
0M
1N
0B
0H
#106300
1#
15
0S
1T
b0x 4
b0x =
0G
#107000
1?
b1011 +
b1011 2
b1011 9
#107001
b1101100 /
#107100
1@
#107200
x<
xB
#107300
b0xx 4
b0xx =
xG
#108000
0?
0E
1K
b1100 +
b1100 2
b1100 9
#108001
b1101101 /
#108100
0;
0@
1F
0I
0L
1O
#108200
0<
x;
0B
xH
0N
#108300
0;
1G
0H
b0x1x 4
b0x1x =
xM
#108400
b1x 4
b1x =
0M
#109000
1?
b1101 +
b1101 2
b1101 9
#109001
b1101110 /
#109100
1@
#109200
x<
xB
#109300
x;
b0xx 4
b0xx =
xG
xH
#109400
b0xxx 4
b0xxx =
xM
#110000
0?
1E
b1110 +
b1110 2
b1110 9
#110001
b1101111 /
#110100
1;
0@
0F
1I
#110200
0<
b1xx 4
b1xx =
1M
0B
0H
#110300
b10x 4
b10x =
0G
#111000
1?
b1111 +
b1111 2
b1111 9
#111001
b1110000 /
#111100
1@
#111200
x<
xB
#111300
b1xx 4
b1xx =
xG
#112000
1>
0?
0E
0K
0Q
b111 *
b111 0
b111 8
b0 +
b0 2
b0 9
#112001
b1110001 /
b111 V
#112100
0;
0:
1F
0I
1L
0O
0R
#112200
x;
0#
05
xH
0T
#112300
x:
b0xxx 4
b0xxx =
xM
xN
#112400
bx 4
bx =
xS
#113000
1?
b1 +
b1 2
b1 9
#113001
b1110010 /
0'
#113100
1<
0@
1C
#113200
1;
bx0x 4
bx0x =
0G
1H
0B
#113300
1:
bx00x 4
bx00x =
0M
1N
#113400
b100x 4
b100x =
1S
#114000
0?
1E
b10 +
b10 2
b10 9
#114001
b1110011 /
#114100
0<
1@
0C
0F
1I
#114200
x<
xB
0H
#114300
b10xx 4
b10xx =
xG
#115000
1?
b11 +
b11 2
b11 9
#115001
b1110100 /
#115100
1<
0@
1C
#115200
b101x 4
b101x =
1G
0B
