p01_ALU/alu.vcd
$date
	Wed Oct 25 14:30:20 2023
$end
$version
	Icarus Verilog
$end
$timescale
	10ps
$end
$scope module alu_tb $end
$var wire 1 ! t_z $end
$var wire 1 " t_s $end
$var wire 1 # t_c $end
$var wire 4 $ t_R [3:0] $end
$var reg 1 % error $end
$var reg 1 & error_R $end
$var reg 1 ' error_c $end
$var reg 1 ( error_s $end
$var reg 1 ) error_z $end
$var reg 4 * t_A [3:0] $end
$var reg 4 + t_B [3:0] $end
$var reg 2 , t_Op [1:0] $end
$var reg 1 - t_cin $end
$var reg 1 . t_l $end
$var integer 32 / errores [31:0] $end
$scope module mat $end
$var wire 4 0 A [3:0] $end
$var wire 2 1 ALUOP [1:0] $end
$var wire 4 2 B [3:0] $end
$var wire 1 - c_in $end
$var wire 1 3 cpl $end
$var wire 1 . l $end
$var wire 1 4 op1_A $end
$var wire 1 5 op2_B $end
$var wire 1 ! zero $end
$var wire 1 " sign $end
$var wire 4 6 out_ul4 [3:0] $end
$var wire 4 7 out_sum4 [3:0] $end
$var wire 4 8 out_add1 [3:0] $end
$var wire 1 # c_out $end
$var wire 1 9 add1 $end
$var wire 4 : R [3:0] $end
$var wire 4 ; OP2 [3:0] $end
$var wire 4 < OP1 [3:0] $end
$scope module mux2_4 $end
$var wire 4 = A [3:0] $end
$var wire 4 > B [3:0] $end
$var wire 1 3 cpl $end
$var wire 1 5 s $end
$var reg 4 ? Out [3:0] $end
$upscope $end
$scope module mux_R $end
$var wire 1 . s $end
$var wire 4 @ Out [3:0] $end
$var wire 4 A B [3:0] $end
$var wire 4 B A [3:0] $end
$upscope $end
$scope module mux_add1 $end
$var wire 4 C A [3:0] $end
$var wire 4 D B [3:0] $end
$var wire 1 9 s $end
$var wire 4 E Out [3:0] $end
$upscope $end
$scope module mux_op1_A $end
$var wire 4 F A [3:0] $end
$var wire 4 G B [3:0] $end
$var wire 1 4 s $end
$var wire 4 H Out [3:0] $end
$upscope $end
$scope module sum4_c_in $end
$var wire 4 I A [3:0] $end
$var wire 4 J B [3:0] $end
$var wire 1 - c_in $end
$var wire 1 # c_out $end
$var wire 4 K S [3:0] $end
$upscope $end
$scope module ul4_ALUOP $end
$var wire 4 L A [3:0] $end
$var wire 4 M B [3:0] $end
$var wire 2 N S [1:0] $end
$var wire 4 O Out [3:0] $end
$scope module cl0 $end
$var wire 2 P S [1:0] $end
$var wire 1 Q a $end
$var wire 1 R and_ $end
$var wire 1 S b $end
$var wire 1 T not_ $end
$var wire 1 U or_ $end
$var wire 1 V xor_ $end
$var wire 1 W out $end
$scope module mux_ $end
$var wire 2 X S [1:0] $end
$var wire 1 R a $end
$var wire 1 U b $end
$var wire 1 V c $end
$var wire 1 T d $end
$var reg 1 W out $end
$upscope $end
$upscope $end
$scope module cl1 $end
$var wire 2 Y S [1:0] $end
$var wire 1 Z a $end
$var wire 1 [ and_ $end
$var wire 1 \ b $end
$var wire 1 ] not_ $end
$var wire 1 ^ or_ $end
$var wire 1 _ xor_ $end
$var wire 1 ` out $end
$scope module mux_ $end
$var wire 2 a S [1:0] $end
$var wire 1 [ a $end
$var wire 1 ^ b $end
$var wire 1 _ c $end
$var wire 1 ] d $end
$var reg 1 ` out $end
$upscope $end
$upscope $end
$scope module cl2 $end
$var wire 2 b S [1:0] $end
$var wire 1 c a $end
$var wire 1 d and_ $end
$var wire 1 e b $end
$var wire 1 f not_ $end
$var wire 1 g or_ $end
$var wire 1 h xor_ $end
$var wire 1 i out $end
$scope module mux_ $end
$var wire 2 j S [1:0] $end
$var wire 1 d a $end
$var wire 1 g b $end
$var wire 1 h c $end
$var wire 1 f d $end
$var reg 1 i out $end
$upscope $end
$upscope $end
$scope module cl3 $end
$var wire 2 k S [1:0] $end
$var wire 1 l a $end
$var wire 1 m and_ $end
$var wire 1 n b $end
$var wire 1 o not_ $end
$var wire 1 p or_ $end
$var wire 1 q xor_ $end
$var wire 1 r out $end
$scope module mux_ $end
$var wire 2 s S [1:0] $end
$var wire 1 m a $end
$var wire 1 p b $end
$var wire 1 q c $end
$var wire 1 o d $end
$var reg 1 r out $end
$upscope $end
$upscope $end
$upscope $end
$upscope $end
$scope task check $end
$var reg 5 t expected_R [4:0] $end
$var reg 1 u expected_c $end
$var reg 1 v expected_s $end
$var reg 1 w expected_z $end
$upscope $end
$upscope $end
$scope module compl1 $end
$var wire 4 x Inp [3:0] $end
$var wire 1 y cpl $end
$var wire 4 z Out [3:0] $end
$upscope $end
$scope module fa $end
$var wire 1 { a $end
$var wire 1 | b $end
$var wire 1 } c_in $end
$var wire 1 ~ c_out $end
$var wire 1 !" sum1 $end
$var wire 1 "" sum $end
$var wire 1 #" carry2 $end
$var wire 1 $" carry1 $end
$scope module ha1 $end
$var wire 1 { a $end
$var wire 1 | b $end
$var wire 1 $" carry $end
$var wire 1 !" sum $end
$upscope $end
$scope module ha2 $end
$var wire 1 } a $end
$var wire 1 !" b $end
$var wire 1 #" carry $end
$var wire 1 "" sum $end
$upscope $end
$upscope $end
$enddefinitions $end
#0
$dumpvars
x$"
x#"
x""
x!"
x~
z}
z|
z{
bz z
zy
bz x
xw
xv
xu
bx t
b0 s
0r
0q
0p
1o
0n
0m
0l
b0 k
b0 j
0i
0h
0g
1f
0e
0d
0c
b0 b
b0 a
0`
0_
0^
1]
0\
0[
0Z
b0 Y
b0 X
0W
0V
0U
1T
0S
0R
0Q
b0 P
b0 O
b0 N
b0 M
b0 L
b0 K
b0 J
b0 I
b0 H
b0 G
b0 F
b0 E
b1 D
b0 C
b0 B
b0 A
b0 @
b0 ?
b0 >
b0 =
b0 <
b0 ;
b0 :
09
b0 8
b0 7
b0 6
05
04
03
b0 2
b0 1
b0 0
b0 /
0.
0-
b0 ,
b0 +
b0 *
x)
x(
x'
x&
x%
b0 $
0#
0"
1!
$end
#1
0%
0)
0&
1w
0'
0(
0v
0u
b0 t
#1000
b1 +
b1 2
b1 >
#2000
b10 +
b10 2
b10 >
#3000
b11 +
b11 2
b11 >
#4000
b100 +
b100 2
b100 >
#5000
b101 +
b101 2
b101 >
#6000
b110 +
b110 2
b110 >
#7000
b111 +
b111 2
b111 >
#8000
b1000 +
b1000 2
b1000 >
#9000
b1001 +
b1001 2
b1001 >
#10000
b1010 +
b1010 2
b1010 >
#11000
b1011 +
b1011 2
b1011 >
#12000
b1100 +
b1100 2
b1100 >
#13000
b1101 +
b1101 2
b1101 >
#14000
b1110 +
b1110 2
b1110 >
#15000
b1111 +
b1111 2
b1111 >
#16000
0!
b1 $
b1 :
b1 @
1U
1V
b1 7
b1 B
b1 K
1S
b1 ;
b1 ?
b1 J
b1 M
b1 *
b1 0
b1 =
b1 G
b0 +
b0 2
b0 >
#16001
0w
b1 t
#17000
b1 +
b1 2
b1 >
#18000
b10 +
b10 2
b10 >
#19000
b11 +
b11 2
b11 >
#20000
b100 +
b100 2
b100 >
#21000
b101 +
b101 2
b101 >
#22000
b110 +
b110 2
b110 >
#23000
b111 +
b111 2
b111 >
#24000
b1000 +
b1000 2
b1000 >
#25000
b1001 +
b1001 2
b1001 >
#26000
b1010 +
b1010 2
b1010 >
#27000
b1011 +
b1011 2
b1011 >
#28000
b1100 +
b1100 2
b1100 >
#29000
b1101 +
b1101 2
b1101 >
#30000
b1110 +
b1110 2
b1110 >
#31000
b1111 +
b1111 2
b1111 >
#32000
b10 $
b10 :
b10 @
0U
0V
1^
1_
b10 7
b10 B
b10 K
0S
1\
b10 ;
b10 ?
b10 J
b10 M
b10 *
b10 0
b10 =
b10 G
b0 +
b0 2
b0 >
#32001
b10 t
#33000
b1 +
b1 2
b1 >
#34000
b10 +
b10 2
b10 >
#35000
b11 +
b11 2
b11 >
#36000
b100 +
b100 2
b100 >
#37000
b101 +
b101 2
b101 >
#38000
b110 +
b110 2
b110 >
#39000
b111 +
b111 2
b111 >
#40000
b1000 +
b1000 2
b1000 >
#41000
b1001 +
b1001 2
b1001 >
#42000
b1010 +
b1010 2
b1010 >
#43000
b1011 +
b1011 2
b1011 >
#44000
b1100 +
b1100 2
b1100 >
#45000
b1101 +
b1101 2
b1101 >
#46000
b1110 +
b1110 2
b1110 >
#47000
b1111 +
b1111 2
b1111 >
#48000
b11 $
b11 :
b11 @
1U
1V
b11 7
b11 B
b11 K
1S
b11 ;
b11 ?
b11 J
b11 M
b11 *
b11 0
b11 =
b11 G
b0 +
b0 2
b0 >
#48001
b11 t
#49000
b1 +
b1 2
b1 >
#50000
b10 +
b10 2
b10 >
#51000
b11 +
b11 2
b11 >
#52000
b100 +
b100 2
b100 >
#53000
b101 +
b101 2
b101 >
#54000
b110 +
b110 2
b110 >
#55000
b111 +
b111 2
b111 >
#56000
b1000 +
b1000 2
b1000 >
#57000
b1001 +
b1001 2
b1001 >
#58000
b1010 +
b1010 2
b1010 >
#59000
b1011 +
b1011 2
b1011 >
#60000
b1100 +
b1100 2
b1100 >
#61000
b1101 +
b1101 2
b1101 >
#62000
b1110 +
b1110 2
b1110 >
#63000
b1111 +
b1111 2
b1111 >
#64000
b100 $
b100 :
b100 @
0U
0V
0^
0_
1g
1h
b100 7
b100 B
b100 K
0S
0\
1e
b100 ;
b100 ?
b100 J
b100 M
b100 *
b100 0
b100 =
b100 G
b0 +
b0 2
b0 >
#64001
b100 t
#65000
b1 +
b1 2
b1 >
#66000
b10 +
b10 2
b10 >
#67000
b11 +
b11 2
b11 >
#68000
b100 +
b100 2
b100 >
#69000
b101 +
b101 2
b101 >
#70000
b110 +
b110 2
b110 >
#71000
b111 +
b111 2
b111 >
#72000
b1000 +
b1000 2
b1000 >
#73000
b1001 +
b1001 2
b1001 >
#74000
b1010 +
b1010 2
b1010 >
#75000
b1011 +
b1011 2
b1011 >
#76000
b1100 +
b1100 2
b1100 >
#77000
b1101 +
b1101 2
b1101 >
#78000
b1110 +
b1110 2
b1110 >
#79000
b1111 +
b1111 2
b1111 >
#80000
b101 $
b101 :
b101 @
1U
1V
b101 7
b101 B
b101 K
1S
b101 ;
b101 ?
b101 J
b101 M
b101 *
b101 0
b101 =
b101 G
b0 +
b0 2
b0 >
#80001
b101 t
#81000
b1 +
b1 2
b1 >
#82000
b10 +
b10 2
b10 >
#83000
b11 +
b11 2
b11 >
#84000
b100 +
b100 2
b100 >
#85000
b101 +
b101 2
b101 >
#86000
b110 +
b110 2
b110 >
#87000
b111 +
b111 2
b111 >
#88000
b1000 +
b1000 2
b1000 >
#89000
b1001 +
b1001 2
b1001 >
#90000
b1010 +
b1010 2
b1010 >
#91000
b1011 +
b1011 2
b1011 >
#92000
b1100 +
b1100 2
b1100 >
#93000
b1101 +
b1101 2
b1101 >
#94000
b1110 +
b1110 2
b1110 >
#95000
b1111 +
b1111 2
b1111 >
#96000
b110 $
b110 :
b110 @
0U
0V
1^
1_
b110 7
b110 B
b110 K
0S
1\
b110 ;
b110 ?
b110 J
b110 M
b110 *
b110 0
b110 =
b110 G
b0 +
b0 2
b0 >
#96001
b110 t
#97000
b1 +
b1 2
b1 >
#98000
b10 +
b10 2
b10 >
#99000
b11 +
b11 2
b11 >
#100000
b100 +
b100 2
b100 >
#101000
b101 +
b101 2
b101 >
#102000
b110 +
b110 2
b110 >
#103000
b111 +
b111 2
b111 >
#104000
b1000 +
b1000 2
b1000 >
#105000
b1001 +
b1001 2
b1001 >
#106000
b1010 +
b1010 2
b1010 >
#107000
b1011 +
b1011 2
b1011 >
#108000
b1100 +
b1100 2
b1100 >
#109000
b1101 +
b1101 2
b1101 >
#110000
b1110 +
b1110 2
b1110 >
#111000
b1111 +
b1111 2
b1111 >
#112000
b111 $
b111 :
b111 @
1U
1V
b111 7
b111 B
b111 K
1S
b111 ;
b111 ?
b111 J
b111 M
b111 *
b111 0
b111 =
b111 G
b0 +
b0 2
b0 >
#112001
b111 t
#113000
b1 +
b1 2
b1 >
#114000
b10 +
b10 2
b10 >
#115000
b11 +
b11 2
b11 >
#116000
b100 +
b100 2
b100 >
#117000
b101 +
b101 2
b101 >
#118000
b110 +
b110 2
b110 >
#119000
b111 +
b111 2
b111 >
#120000
b1000 +
b1000 2
b1000 >
#121000
b1001 +
b1001 2
b1001 >
#122000
b1010 +
b1010 2
b1010 >
#123000
b1011 +
b1011 2
b1011 >
#124000
b1100 +
b1100 2
b1100 >
#125000
b1101 +
b1101 2
b1101 >
#126000
b1110 +
b1110 2
b1110 >
#127000
b1111 +
b1111 2
b1111 >
#128000
1"
b1000 $
b1000 :
b1000 @
0U
0V
0^
0_
0g
0h
1p
1q
b1000 7
b1000 B
b1000 K
0S
0\
0e
1n
b1000 ;
b1000 ?
b1000 J
b1000 M
b1000 *
b1000 0
b1000 =
b1000 G
b0 +
b0 2
b0 >
#128001
1v
b1000 t
#129000
b1 +
b1 2
b1 >
#130000
b10 +
b10 2
b10 >
#131000
b11 +
b11 2
b11 >
#132000
b100 +
b100 2
b100 >
#133000
b101 +
b101 2
b101 >
#134000
b110 +
b110 2
b110 >
#135000
b111 +
b111 2
b111 >
#136000
b1000 +
b1000 2
b1000 >
#137000
b1001 +
b1001 2
b1001 >
#138000
b1010 +
b1010 2
b1010 >
#139000
b1011 +
b1011 2
b1011 >
#140000
b1100 +
b1100 2
b1100 >
#141000
b1101 +
b1101 2
b1101 >
#142000
b1110 +
b1110 2
b1110 >
#143000
b1111 +
b1111 2
b1111 >
#144000
b1001 $
b1001 :
b1001 @
1U
1V
b1001 7
b1001 B
b1001 K
1S
b1001 ;
b1001 ?
b1001 J
b1001 M
b1001 *
b1001 0
b1001 =
b1001 G
b0 +
b0 2
b0 >
#144001
b1001 t
#145000
b1 +
b1 2
b1 >
#146000
b10 +
b10 2
b10 >
#147000
b11 +
b11 2
b11 >
#148000
b100 +
b100 2
b100 >
#149000
b101 +
b101 2
b101 >
#150000
b110 +
b110 2
b110 >
#151000
b111 +
b111 2
b111 >
#152000
b1000 +
b1000 2
b1000 >
#153000
b1001 +
b1001 2
b1001 >
#154000
b1010 +
b1010 2
b1010 >
#155000
b1011 +
b1011 2
b1011 >
#156000
b1100 +
b1100 2
b1100 >
#157000
b1101 +
b1101 2
b1101 >
#158000
b1110 +
b1110 2
b1110 >
#159000
b1111 +
b1111 2
b1111 >
#160000
b1010 $
b1010 :
b1010 @
0U
0V
1^
1_
b1010 7
b1010 B
b1010 K
0S
1\
b1010 ;
b1010 ?
b1010 J
b1010 M
b1010 *
b1010 0
b1010 =
b1010 G
b0 +
b0 2
b0 >
#160001
b1010 t
#161000
b1 +
b1 2
b1 >
#162000
b10 +
b10 2
b10 >
#163000
b11 +
b11 2
b11 >
#164000
b100 +
b100 2
b100 >
#165000
b101 +
b101 2
b101 >
#166000
b110 +
b110 2
b110 >
#167000
b111 +
b111 2
b111 >
#168000
b1000 +
b1000 2
b1000 >
#169000
b1001 +
b1001 2
b1001 >
#170000
b1010 +
b1010 2
b1010 >
#171000
b1011 +
b1011 2
b1011 >
#172000
b1100 +
b1100 2
b1100 >
#173000
b1101 +
b1101 2
b1101 >
#174000
b1110 +
b1110 2
b1110 >
#175000
b1111 +
b1111 2
b1111 >
#176000
b1011 $
b1011 :
b1011 @
1U
1V
b1011 7
b1011 B
b1011 K
1S
b1011 ;
b1011 ?
b1011 J
b1011 M
b1011 *
b1011 0
b1011 =
b1011 G
b0 +
b0 2
b0 >
#176001
b1011 t
#177000
b1 +
b1 2
b1 >
#178000
b10 +
b10 2
b10 >
#179000
b11 +
b11 2
b11 >
#180000
b100 +
b100 2
b100 >
#181000
b101 +
b101 2
b101 >
#182000
b110 +
b110 2
b110 >
#183000
b111 +
b111 2
b111 >
#184000
b1000 +
b1000 2
b1000 >
#185000
b1001 +
b1001 2
b1001 >
#186000
b1010 +
b1010 2
b1010 >
#187000
b1011 +
b1011 2
b1011 >
#188000
b1100 +
b1100 2
b1100 >
#189000
b1101 +
b1101 2
b1101 >
#190000
b1110 +
b1110 2
b1110 >
#191000
b1111 +
b1111 2
b1111 >
#192000
b1100 $
b1100 :
b1100 @
0U
0V
0^
0_
1g
1h
b1100 7
b1100 B
b1100 K
0S
0\
1e
b1100 ;
b1100 ?
b1100 J
b1100 M
b1100 *
b1100 0
b1100 =
b1100 G
b0 +
b0 2
b0 >
#192001
b1100 t
#193000
b1 +
b1 2
b1 >
#194000
b10 +
b10 2
b10 >
#195000
b11 +
b11 2
b11 >
#196000
b100 +
b100 2
b100 >
#197000
b101 +
b101 2
b101 >
#198000
b110 +
b110 2
b110 >
#199000
b111 +
b111 2
b111 >
#200000
b1000 +
b1000 2
b1000 >
#201000
b1001 +
b1001 2
b1001 >
#202000
b1010 +
b1010 2
b1010 >
#203000
b1011 +
b1011 2
b1011 >
#204000
b1100 +
b1100 2
b1100 >
#205000
b1101 +
b1101 2
b1101 >
#206000
b1110 +
b1110 2
b1110 >
#207000
b1111 +
b1111 2
b1111 >
#208000
b1101 $
b1101 :
b1101 @
1U
1V
b1101 7
b1101 B
b1101 K
1S
b1101 ;
b1101 ?
b1101 J
b1101 M
b1101 *
b1101 0
b1101 =
b1101 G
b0 +
b0 2
b0 >
#208001
b1101 t
#209000
b1 +
b1 2
b1 >
#210000
b10 +
b10 2
b10 >
#211000
b11 +
b11 2
b11 >
#212000
b100 +
b100 2
b100 >
#213000
b101 +
b101 2
b101 >
#214000
b110 +
b110 2
b110 >
#215000
b111 +
b111 2
b111 >
#216000
b1000 +
b1000 2
b1000 >
#217000
b1001 +
b1001 2
b1001 >
#218000
b1010 +
b1010 2
b1010 >
#219000
b1011 +
b1011 2
b1011 >
#220000
b1100 +
b1100 2
b1100 >
#221000
b1101 +
b1101 2
b1101 >
#222000
b1110 +
b1110 2
b1110 >
#223000
b1111 +
b1111 2
b1111 >
#224000
b1110 $
b1110 :
b1110 @
0U
0V
1^
1_
b1110 7
b1110 B
b1110 K
0S
1\
b1110 ;
b1110 ?
b1110 J
b1110 M
b1110 *
b1110 0
b1110 =
b1110 G
b0 +
b0 2
b0 >
#224001
b1110 t
#225000
b1 +
b1 2
b1 >
#226000
b10 +
b10 2
b10 >
#227000
b11 +
b11 2
b11 >
#228000
b100 +
b100 2
b100 >
#229000
b101 +
b101 2
b101 >
#230000
b110 +
b110 2
b110 >
#231000
b111 +
b111 2
b111 >
#232000
b1000 +
b1000 2
b1000 >
#233000
b1001 +
b1001 2
b1001 >
#234000
b1010 +
b1010 2
b1010 >
#235000
b1011 +
b1011 2
b1011 >
#236000
b1100 +
b1100 2
b1100 >
#237000
b1101 +
b1101 2
b1101 >
#238000
b1110 +
b1110 2
b1110 >
#239000
b1111 +
b1111 2
b1111 >
#240000
b1111 $
b1111 :
b1111 @
1U
1V
b1111 7
b1111 B
b1111 K
1S
b1111 ;
b1111 ?
b1111 J
b1111 M
b1111 *
b1111 0
b1111 =
b1111 G
b0 +
b0 2
b0 >
#240001
b1111 t
#241000
b1 +
b1 2
b1 >
#242000
b10 +
b10 2
b10 >
#243000
b11 +
b11 2
b11 >
#244000
b100 +
b100 2
b100 >
#245000
b101 +
b101 2
b101 >
#246000
b110 +
b110 2
b110 >
#247000
b111 +
b111 2
b111 >
#248000
b1000 +
b1000 2
b1000 >
#249000
b1001 +
b1001 2
b1001 >
#250000
b1010 +
b1010 2
b1010 >
#251000
b1011 +
b1011 2
b1011 >
#252000
b1100 +
b1100 2
b1100 >
#253000
b1101 +
b1101 2
b1101 >
#254000
b1110 +
b1110 2
b1110 >
#255000
b1111 +
b1111 2
b1111 >
#256000
0"
0U
0V
0^
0_
0g
0h
0p
0q
b1 $
b1 :
b1 @
0S
0\
0e
0n
b1 7
b1 B
b1 K
b0 ;
b0 ?
b0 J
b0 M
1-
b0 *
b0 0
b0 =
b0 G
b0 +
b0 2
b0 >
#256001
0v
b1 t
#257000
b1 +
b1 2
b1 >
#258000
b10 +
b10 2
b10 >
#259000
b11 +
b11 2
b11 >
#260000
b100 +
b100 2
b100 >
#261000
b101 +
b101 2
b101 >
#262000
b110 +
b110 2
b110 >
#263000
b111 +
b111 2
b111 >
#264000
b1000 +
b1000 2
b1000 >
#265000
b1001 +
b1001 2
b1001 >
#266000
b1010 +
b1010 2
b1010 >
#267000
b1011 +
b1011 2
b1011 >
#268000
b1100 +
b1100 2
b1100 >
#269000
b1101 +
b1101 2
b1101 >
#270000
b1110 +
b1110 2
b1110 >
#271000
b1111 +
b1111 2
b1111 >
#272000
b10 $
b10 :
b10 @
1U
1V
b10 7
b10 B
b10 K
1S
b1 ;
b1 ?
b1 J
b1 M
b1 *
b1 0
b1 =
b1 G
b0 +
b0 2
b0 >
#272001
b10 t
#273000
b1 +
b1 2
b1 >
#274000
b10 +
b10 2
b10 >
#275000
b11 +
b11 2
b11 >
#276000
b100 +
b100 2
b100 >
#277000
b101 +
b101 2
b101 >
#278000
b110 +
b110 2
b110 >
#279000
b111 +
b111 2
b111 >
#280000
b1000 +
b1000 2
b1000 >
#281000
b1001 +
b1001 2
b1001 >
#282000
b1010 +
b1010 2
b1010 >
#283000
b1011 +
b1011 2
b1011 >
#284000
b1100 +
b1100 2
b1100 >
#285000
b1101 +
b1101 2
b1101 >
#286000
b1110 +
b1110 2
b1110 >
#287000
b1111 +
b1111 2
b1111 >
#288000
b11 $
b11 :
b11 @
0U
0V
1^
1_
b11 7
b11 B
b11 K
0S
1\
b10 ;
b10 ?
b10 J
b10 M
b10 *
b10 0
b10 =
b10 G
b0 +
b0 2
b0 >
#288001
b11 t
#289000
b1 +
b1 2
b1 >
#290000
b10 +
b10 2
b10 >
#291000
b11 +
b11 2
b11 >
#292000
b100 +
b100 2
b100 >
#293000
b101 +
b101 2
b101 >
#294000
b110 +
b110 2
b110 >
#295000
b111 +
b111 2
b111 >
#296000
b1000 +
b1000 2
b1000 >
#297000
b1001 +
b1001 2
b1001 >
#298000
b1010 +
b1010 2
b1010 >
#299000
b1011 +
b1011 2
b1011 >
#300000
b1100 +
b1100 2
b1100 >
#301000
b1101 +
b1101 2
b1101 >
#302000
b1110 +
b1110 2
b1110 >
#303000
b1111 +
b1111 2
b1111 >
#304000
b100 $
b100 :
b100 @
1U
1V
b100 7
b100 B
b100 K
1S
b11 ;
b11 ?
b11 J
b11 M
b11 *
b11 0
b11 =
b11 G
b0 +
b0 2
b0 >
#304001
b100 t
#305000
b1 +
b1 2
b1 >
#306000
b10 +
b10 2
b10 >
#307000
b11 +
b11 2
b11 >
#308000
b100 +
b100 2
b100 >
#309000
b101 +
b101 2
b101 >
#310000
b110 +
b110 2
b110 >
#311000
b111 +
b111 2
b111 >
#312000
b1000 +
b1000 2
b1000 >
#313000
b1001 +
b1001 2
b1001 >
#314000
b1010 +
b1010 2
b1010 >
#315000
b1011 +
b1011 2
b1011 >
#316000
b1100 +
b1100 2
b1100 >
#317000
b1101 +
b1101 2
b1101 >
#318000
b1110 +
b1110 2
b1110 >
#319000
b1111 +
b1111 2
b1111 >
#320000
b101 $
b101 :
b101 @
0U
0V
0^
0_
1g
1h
b101 7
b101 B
b101 K
0S
0\
1e
b100 ;
b100 ?
b100 J
b100 M
b100 *
b100 0
b100 =
b100 G
b0 +
b0 2
b0 >
#320001
b101 t
#321000
b1 +
b1 2
b1 >
#322000
b10 +
b10 2
b10 >
#323000
b11 +
b11 2
b11 >
#324000
b100 +
b100 2
b100 >
#325000
b101 +
b101 2
b101 >
#326000
b110 +
b110 2
b110 >
#327000
b111 +
b111 2
b111 >
#328000
b1000 +
b1000 2
b1000 >
#329000
b1001 +
b1001 2
b1001 >
#330000
b1010 +
b1010 2
b1010 >
#331000
b1011 +
b1011 2
b1011 >
#332000
b1100 +
b1100 2
b1100 >
#333000
b1101 +
b1101 2
b1101 >
#334000
b1110 +
b1110 2
b1110 >
#335000
b1111 +
b1111 2
b1111 >
#336000
b110 $
b110 :
b110 @
1U
1V
b110 7
b110 B
b110 K
1S
b101 ;
b101 ?
b101 J
b101 M
b101 *
b101 0
b101 =
b101 G
b0 +
b0 2
b0 >
#336001
b110 t
#337000
b1 +
b1 2
b1 >
#338000
b10 +
b10 2
b10 >
#339000
b11 +
b11 2
b11 >
#340000
b100 +
b100 2
b100 >
#341000
b101 +
b101 2
b101 >
#342000
b110 +
b110 2
b110 >
#343000
b111 +
b111 2
b111 >
#344000
b1000 +
b1000 2
b1000 >
#345000
b1001 +
b1001 2
b1001 >
#346000
b1010 +
b1010 2
b1010 >
#347000
b1011 +
b1011 2
b1011 >
#348000
b1100 +
b1100 2
b1100 >
#349000
b1101 +
b1101 2
b1101 >
#350000
b1110 +
b1110 2
b1110 >
#351000
b1111 +
b1111 2
b1111 >
#352000
b111 $
b111 :
b111 @
0U
0V
1^
1_
b111 7
b111 B
b111 K
0S
1\
b110 ;
b110 ?
b110 J
b110 M
b110 *
b110 0
b110 =
b110 G
b0 +
b0 2
b0 >
#352001
b111 t
#353000
b1 +
b1 2
b1 >
#354000
b10 +
b10 2
b10 >
#355000
b11 +
b11 2
b11 >
#356000
b100 +
b100 2
b100 >
#357000
b101 +
b101 2
b101 >
#358000
b110 +
b110 2
b110 >
#359000
b111 +
b111 2
b111 >
#360000
b1000 +
b1000 2
b1000 >
#361000
b1001 +
b1001 2
b1001 >
#362000
b1010 +
b1010 2
b1010 >
#363000
b1011 +
b1011 2
b1011 >
#364000
b1100 +
b1100 2
b1100 >
#365000
b1101 +
b1101 2
b1101 >
#366000
b1110 +
b1110 2
b1110 >
#367000
b1111 +
b1111 2
b1111 >
#368000
1"
b1000 $
b1000 :
b1000 @
1U
1V
b1000 7
b1000 B
b1000 K
1S
b111 ;
b111 ?
b111 J
b111 M
b111 *
b111 0
b111 =
b111 G
b0 +
b0 2
b0 >
#368001
1v
b1000 t
#369000
b1 +
b1 2
b1 >
#370000
b10 +
b10 2
b10 >
#371000
b11 +
b11 2
b11 >
#372000
b100 +
b100 2
b100 >
#373000
b101 +
b101 2
b101 >
#374000
b110 +
b110 2
b110 >
#375000
b111 +
b111 2
b111 >
#376000
b1000 +
b1000 2
b1000 >
#377000
b1001 +
b1001 2
b1001 >
#378000
b1010 +
b1010 2
b1010 >
#379000
b1011 +
b1011 2
b1011 >
#380000
b1100 +
b1100 2
b1100 >
#381000
b1101 +
b1101 2
b1101 >
#382000
b1110 +
b1110 2
b1110 >
#383000
b1111 +
b1111 2
b1111 >
#384000
b1001 $
b1001 :
b1001 @
0U
0V
0^
0_
0g
0h
1p
1q
b1001 7
b1001 B
b1001 K
0S
0\
0e
1n
b1000 ;
b1000 ?
b1000 J
b1000 M
b1000 *
b1000 0
b1000 =
b1000 G
b0 +
b0 2
b0 >
#384001
b1001 t
#385000
b1 +
b1 2
b1 >
#386000
b10 +
b10 2
b10 >
#387000
b11 +
b11 2
b11 >
#388000
b100 +
b100 2
b100 >
#389000
b101 +
b101 2
b101 >
#390000
b110 +
b110 2
b110 >
#391000
b111 +
b111 2
b111 >
#392000
b1000 +
b1000 2
b1000 >
#393000
b1001 +
b1001 2
b1001 >
#394000
b1010 +
b1010 2
b1010 >
#395000
b1011 +
b1011 2
b1011 >
#396000
b1100 +
b1100 2
b1100 >
#397000
b1101 +
b1101 2
b1101 >
#398000
b1110 +
b1110 2
b1110 >
#399000
b1111 +
b1111 2
b1111 >
#400000
b1010 $
b1010 :
b1010 @
1U
1V
b1010 7
b1010 B
b1010 K
1S
b1001 ;
b1001 ?
b1001 J
b1001 M
b1001 *
b1001 0
b1001 =
b1001 G
b0 +
b0 2
b0 >
#400001
b1010 t
#401000
b1 +
b1 2
b1 >
#402000
b10 +
b10 2
b10 >
#403000
b11 +
b11 2
b11 >
#404000
b100 +
b100 2
b100 >
#405000
b101 +
b101 2
b101 >
#406000
b110 +
b110 2
b110 >
#407000
b111 +
b111 2
b111 >
#408000
b1000 +
b1000 2
b1000 >
#409000
b1001 +
b1001 2
b1001 >
#410000
b1010 +
b1010 2
b1010 >
#411000
b1011 +
b1011 2
b1011 >
#412000
b1100 +
b1100 2
b1100 >
#413000
b1101 +
b1101 2
b1101 >
#414000
b1110 +
b1110 2
b1110 >
#415000
b1111 +
b1111 2
b1111 >
#416000
b1011 $
b1011 :
b1011 @
0U
0V
1^
1_
b1011 7
b1011 B
b1011 K
0S
1\
b1010 ;
b1010 ?
b1010 J
b1010 M
b1010 *
b1010 0
b1010 =
b1010 G
b0 +
b0 2
b0 >
#416001
b1011 t
#417000
b1 +
b1 2
b1 >
#418000
b10 +
b10 2
b10 >
#419000
b11 +
b11 2
b11 >
#420000
b100 +
b100 2
b100 >
#421000
b101 +
b101 2
b101 >
#422000
b110 +
b110 2
b110 >
#423000
b111 +
b111 2
b111 >
#424000
b1000 +
b1000 2
b1000 >
#425000
b1001 +
b1001 2
b1001 >
#426000
b1010 +
b1010 2
b1010 >
#427000
b1011 +
b1011 2
b1011 >
#428000
b1100 +
b1100 2
b1100 >
#429000
b1101 +
b1101 2
b1101 >
#430000
b1110 +
b1110 2
b1110 >
#431000
b1111 +
b1111 2
b1111 >
#432000
b1100 $
b1100 :
b1100 @
1U
1V
b1100 7
b1100 B
b1100 K
1S
b1011 ;
b1011 ?
b1011 J
b1011 M
b1011 *
b1011 0
b1011 =
b1011 G
b0 +
b0 2
b0 >
#432001
b1100 t
#433000
b1 +
b1 2
b1 >
#434000
b10 +
b10 2
b10 >
#435000
b11 +
b11 2
b11 >
#436000
b100 +
b100 2
b100 >
#437000
b101 +
b101 2
b101 >
#438000
b110 +
b110 2
b110 >
#439000
b111 +
b111 2
b111 >
#440000
b1000 +
b1000 2
b1000 >
#441000
b1001 +
b1001 2
b1001 >
#442000
b1010 +
b1010 2
b1010 >
#443000
b1011 +
b1011 2
b1011 >
#444000
b1100 +
b1100 2
b1100 >
#445000
b1101 +
b1101 2
b1101 >
#446000
b1110 +
b1110 2
b1110 >
#447000
b1111 +
b1111 2
b1111 >
